<?xml version="1.0" encoding="UTF-8"?>
<svg width="700pt" height="700pt" version="1.1" viewBox="0 0 700 700" xmlns="http://www.w3.org/2000/svg">
 <path d="m525.11-0.046875c-26.859 0-53.711 10.234-74.168 30.695-117.32 117.31-234.63 234.63-351.95 351.95l148.44 148.44c117.32-117.31 234.64-234.63 351.95-351.95 40.914-40.914 40.816-107.53-0.10156-148.44-20.457-20.457-47.312-30.691-74.172-30.691zm-444.34 413.95-10.73 127.18c-0.90234 10.789 8.1094 19.801 18.902 18.898l127.11-10.801z"/>
</svg>
